module gitlab.com/ayush-iitkgp/blocksi

go 1.17

require (
	github.com/dgrijalva/jwt-go v3.2.0+incompatible
	github.com/gorilla/handlers v1.5.1
	github.com/gorilla/mux v1.8.0
	github.com/jinzhu/gorm v1.9.16
	github.com/joho/godotenv v1.4.0
	golang.org/x/crypto v0.0.0-20220112180741-5e0467b6c7ce
)

require (
	github.com/felixge/httpsnoop v1.0.2 // indirect
	github.com/jinzhu/inflection v1.0.0 // indirect
	github.com/lib/pq v1.10.4 // indirect
	github.com/rs/cors v1.8.2 // indirect
)
